Anaylsis
…
anxiety_df

## # A tibble: 301 × 2
## # Groups:   subgroup [7]
##    subgroup           value
##    <chr>              <dbl>
##  1 18 - 29 years       46.8
##  2 30 - 39 years       39.6
##  3 40 - 49 years       38.9
##  4 50 - 59 years       35.8
##  5 60 - 69 years       28.9
##  6 70 - 79 years       21.5
##  7 80 years and above  21.1
##  8 18 - 29 years       47.4
##  9 30 - 39 years       39.3
## 10 40 - 49 years       36.9
## # … with 291 more rows
…
